%YAML 1.1
%TAG !u! tag:unity3d.com,2011:
--- !u!74 &7400000
AnimationClip:
  m_ObjectHideFlags: 0
  m_CorrespondingSourceObject: {fileID: 0}
  m_PrefabInternal: {fileID: 0}
  m_Name: SpellTest2Maintain
  serializedVersion: 6
  m_Legacy: 0
  m_Compressed: 0
  m_UseHighQualityCurve: 1
  m_RotationCurves: []
  m_CompressedRotationCurves: []
  m_EulerCurves: []
  m_PositionCurves: []
  m_ScaleCurves: []
  m_FloatCurves: []
  m_PPtrCurves:
  - curve:
    - time: 0
      value: {fileID: 21300000, guid: 59fa5c97d20c09c4fb81723f064de201, type: 3}
    - time: 0.033333335
      value: {fileID: 21300000, guid: eb8fcb4bcf8aa284fbdb9bb54c8a6ea1, type: 3}
    - time: 0.06666667
      value: {fileID: 21300000, guid: 8f78c662b565b5e4eb46f3b02d607ce4, type: 3}
    - time: 0.1
      value: {fileID: 21300000, guid: 1f7876e5c393e5d459fbdf4f4cf3ea65, type: 3}
    - time: 0.13333334
      value: {fileID: 21300000, guid: 0647d25a59608f942892c2c610ca8484, type: 3}
    - time: 0.16666667
      value: {fileID: 21300000, guid: abeee5e2903467f4e9612fcc8be6fe98, type: 3}
    - time: 0.2
      value: {fileID: 21300000, guid: 5776cd59cfad5e04397e17b166ea5b1f, type: 3}
    - time: 0.23333333
      value: {fileID: 21300000, guid: 4e046739105e1f042943d00095af28f9, type: 3}
    - time: 0.26666668
      value: {fileID: 21300000, guid: bf2565817f6abdd41acd98716b6be0d1, type: 3}
    - time: 0.3
      value: {fileID: 21300000, guid: 132a87efe86bb3145829083157a4b01c, type: 3}
    - time: 0.33333334
      value: {fileID: 21300000, guid: 66fb04332304f724d902d4cf61f6f40d, type: 3}
    - time: 0.36666667
      value: {fileID: 21300000, guid: 1eabeb9ca042dea4aa5046cd51a63e14, type: 3}
    - time: 0.4
      value: {fileID: 21300000, guid: af4354c98754de846b0e2c7fea909455, type: 3}
    - time: 0.43333334
      value: {fileID: 21300000, guid: 99c556865c6337941b0696377c6b3eed, type: 3}
    - time: 0.46666667
      value: {fileID: 21300000, guid: 9cad4cb50092c4647b269970caf3c65d, type: 3}
    attribute: m_Sprite
    path: 
    classID: 212
    script: {fileID: 0}
  m_SampleRate: 30
  m_WrapMode: 0
  m_Bounds:
    m_Center: {x: 0, y: 0, z: 0}
    m_Extent: {x: 0, y: 0, z: 0}
  m_ClipBindingConstant:
    genericBindings:
    - serializedVersion: 2
      path: 0
      attribute: 0
      script: {fileID: 0}
      typeID: 212
      customType: 23
      isPPtrCurve: 1
    pptrCurveMapping:
    - {fileID: 21300000, guid: 59fa5c97d20c09c4fb81723f064de201, type: 3}
    - {fileID: 21300000, guid: eb8fcb4bcf8aa284fbdb9bb54c8a6ea1, type: 3}
    - {fileID: 21300000, guid: 8f78c662b565b5e4eb46f3b02d607ce4, type: 3}
    - {fileID: 21300000, guid: 1f7876e5c393e5d459fbdf4f4cf3ea65, type: 3}
    - {fileID: 21300000, guid: 0647d25a59608f942892c2c610ca8484, type: 3}
    - {fileID: 21300000, guid: abeee5e2903467f4e9612fcc8be6fe98, type: 3}
    - {fileID: 21300000, guid: 5776cd59cfad5e04397e17b166ea5b1f, type: 3}
    - {fileID: 21300000, guid: 4e046739105e1f042943d00095af28f9, type: 3}
    - {fileID: 21300000, guid: bf2565817f6abdd41acd98716b6be0d1, type: 3}
    - {fileID: 21300000, guid: 132a87efe86bb3145829083157a4b01c, type: 3}
    - {fileID: 21300000, guid: 66fb04332304f724d902d4cf61f6f40d, type: 3}
    - {fileID: 21300000, guid: 1eabeb9ca042dea4aa5046cd51a63e14, type: 3}
    - {fileID: 21300000, guid: af4354c98754de846b0e2c7fea909455, type: 3}
    - {fileID: 21300000, guid: 99c556865c6337941b0696377c6b3eed, type: 3}
    - {fileID: 21300000, guid: 9cad4cb50092c4647b269970caf3c65d, type: 3}
  m_AnimationClipSettings:
    serializedVersion: 2
    m_AdditiveReferencePoseClip: {fileID: 0}
    m_AdditiveReferencePoseTime: 0
    m_StartTime: 0
    m_StopTime: 0.5
    m_OrientationOffsetY: 0
    m_Level: 0
    m_CycleOffset: 0
    m_HasAdditiveReferencePose: 0
    m_LoopTime: 1
    m_LoopBlend: 0
    m_LoopBlendOrientation: 0
    m_LoopBlendPositionY: 0
    m_LoopBlendPositionXZ: 0
    m_KeepOriginalOrientation: 0
    m_KeepOriginalPositionY: 1
    m_KeepOriginalPositionXZ: 0
    m_HeightFromFeet: 0
    m_Mirror: 0
  m_EditorCurves: []
  m_EulerEditorCurves: []
  m_HasGenericRootTransform: 0
  m_HasMotionFloatCurves: 0
  m_GenerateMotionCurves: 0
  m_Events: []
